digraph model_graph {
  // Dotfile by Django-Extensions graph_models
  // Created: 2020-04-28 12:03
  // Cli Options: -a

  fontname = "Roboto"
  fontsize = 8
  splines  = true

  node [
    fontname = "Roboto"
    fontsize = 8
    shape = "plaintext"
  ]

  edge [
    fontname = "Roboto"
    fontsize = 8
  ]

  // Labels
  subgraph cluster_django_contrib_admin {
    label=<
          <TABLE BORDER="0" CELLBORDER="0" CELLSPACING="0">
          <TR><TD COLSPAN="2" CELLPADDING="4" ALIGN="CENTER">
          <FONT FACE="Roboto" COLOR="Black" POINT-SIZE="10">
          <B>django.contrib.admin</B>
          </FONT>
          </TD></TR>
          </TABLE>
          >
    color=olivedrab4
    style="rounded"
  
    django_contrib_admin_models_LogEntry [label=<
      <TABLE BGCOLOR="white" BORDER="1" CELLBORDER="0" CELLSPACING="0">
      <TR><TD COLSPAN="2" CELLPADDING="5" ALIGN="CENTER" BGCOLOR="#1b563f">
      <FONT FACE="Roboto" COLOR="white" POINT-SIZE="10"><B>
      LogEntry
      </B></FONT></TD></TR>
    
    
      <TR><TD ALIGN="LEFT" BORDER="0">
      <FONT FACE="Roboto"><B>id</B></FONT>
      </TD><TD ALIGN="LEFT">
      <FONT FACE="Roboto"><B>AutoField</B></FONT>
      </TD></TR>
    
    
    
      <TR><TD ALIGN="LEFT" BORDER="0">
      <FONT COLOR="#7B7B7B" FACE="Roboto"><B>content_type</B></FONT>
      </TD><TD ALIGN="LEFT">
      <FONT COLOR="#7B7B7B" FACE="Roboto"><B>ForeignKey (id)</B></FONT>
      </TD></TR>
    
    
    
      <TR><TD ALIGN="LEFT" BORDER="0">
      <FONT FACE="Roboto"><B>user</B></FONT>
      </TD><TD ALIGN="LEFT">
      <FONT FACE="Roboto"><B>ForeignKey (id)</B></FONT>
      </TD></TR>
    
    
    
      <TR><TD ALIGN="LEFT" BORDER="0">
      <FONT FACE="Roboto">action_flag</FONT>
      </TD><TD ALIGN="LEFT">
      <FONT FACE="Roboto">PositiveSmallIntegerField</FONT>
      </TD></TR>
    
    
    
      <TR><TD ALIGN="LEFT" BORDER="0">
      <FONT FACE="Roboto">action_time</FONT>
      </TD><TD ALIGN="LEFT">
      <FONT FACE="Roboto">DateTimeField</FONT>
      </TD></TR>
    
    
    
      <TR><TD ALIGN="LEFT" BORDER="0">
      <FONT COLOR="#7B7B7B" FACE="Roboto">change_message</FONT>
      </TD><TD ALIGN="LEFT">
      <FONT COLOR="#7B7B7B" FACE="Roboto">TextField</FONT>
      </TD></TR>
    
    
    
      <TR><TD ALIGN="LEFT" BORDER="0">
      <FONT COLOR="#7B7B7B" FACE="Roboto">object_id</FONT>
      </TD><TD ALIGN="LEFT">
      <FONT COLOR="#7B7B7B" FACE="Roboto">TextField</FONT>
      </TD></TR>
    
    
    
      <TR><TD ALIGN="LEFT" BORDER="0">
      <FONT FACE="Roboto">object_repr</FONT>
      </TD><TD ALIGN="LEFT">
      <FONT FACE="Roboto">CharField</FONT>
      </TD></TR>
    
    
      </TABLE>
      >]

  }
  subgraph cluster_django_contrib_auth {
    label=<
          <TABLE BORDER="0" CELLBORDER="0" CELLSPACING="0">
          <TR><TD COLSPAN="2" CELLPADDING="4" ALIGN="CENTER">
          <FONT FACE="Roboto" COLOR="Black" POINT-SIZE="10">
          <B>django.contrib.auth</B>
          </FONT>
          </TD></TR>
          </TABLE>
          >
    color=olivedrab4
    style="rounded"
  
    django_contrib_auth_models_Permission [label=<
      <TABLE BGCOLOR="white" BORDER="1" CELLBORDER="0" CELLSPACING="0">
      <TR><TD COLSPAN="2" CELLPADDING="5" ALIGN="CENTER" BGCOLOR="#1b563f">
      <FONT FACE="Roboto" COLOR="white" POINT-SIZE="10"><B>
      Permission
      </B></FONT></TD></TR>
    
    
      <TR><TD ALIGN="LEFT" BORDER="0">
      <FONT FACE="Roboto"><B>id</B></FONT>
      </TD><TD ALIGN="LEFT">
      <FONT FACE="Roboto"><B>AutoField</B></FONT>
      </TD></TR>
    
    
    
      <TR><TD ALIGN="LEFT" BORDER="0">
      <FONT FACE="Roboto"><B>content_type</B></FONT>
      </TD><TD ALIGN="LEFT">
      <FONT FACE="Roboto"><B>ForeignKey (id)</B></FONT>
      </TD></TR>
    
    
    
      <TR><TD ALIGN="LEFT" BORDER="0">
      <FONT FACE="Roboto">codename</FONT>
      </TD><TD ALIGN="LEFT">
      <FONT FACE="Roboto">CharField</FONT>
      </TD></TR>
    
    
    
      <TR><TD ALIGN="LEFT" BORDER="0">
      <FONT FACE="Roboto">name</FONT>
      </TD><TD ALIGN="LEFT">
      <FONT FACE="Roboto">CharField</FONT>
      </TD></TR>
    
    
      </TABLE>
      >]
  
    django_contrib_auth_models_Group [label=<
      <TABLE BGCOLOR="white" BORDER="1" CELLBORDER="0" CELLSPACING="0">
      <TR><TD COLSPAN="2" CELLPADDING="5" ALIGN="CENTER" BGCOLOR="#1b563f">
      <FONT FACE="Roboto" COLOR="white" POINT-SIZE="10"><B>
      Group
      </B></FONT></TD></TR>
    
    
      <TR><TD ALIGN="LEFT" BORDER="0">
      <FONT FACE="Roboto"><B>id</B></FONT>
      </TD><TD ALIGN="LEFT">
      <FONT FACE="Roboto"><B>AutoField</B></FONT>
      </TD></TR>
    
    
    
      <TR><TD ALIGN="LEFT" BORDER="0">
      <FONT FACE="Roboto">name</FONT>
      </TD><TD ALIGN="LEFT">
      <FONT FACE="Roboto">CharField</FONT>
      </TD></TR>
    
    
      </TABLE>
      >]

  }
  subgraph cluster_django_contrib_contenttypes {
    label=<
          <TABLE BORDER="0" CELLBORDER="0" CELLSPACING="0">
          <TR><TD COLSPAN="2" CELLPADDING="4" ALIGN="CENTER">
          <FONT FACE="Roboto" COLOR="Black" POINT-SIZE="10">
          <B>django.contrib.contenttypes</B>
          </FONT>
          </TD></TR>
          </TABLE>
          >
    color=olivedrab4
    style="rounded"
  
    django_contrib_contenttypes_models_ContentType [label=<
      <TABLE BGCOLOR="white" BORDER="1" CELLBORDER="0" CELLSPACING="0">
      <TR><TD COLSPAN="2" CELLPADDING="5" ALIGN="CENTER" BGCOLOR="#1b563f">
      <FONT FACE="Roboto" COLOR="white" POINT-SIZE="10"><B>
      ContentType
      </B></FONT></TD></TR>
    
    
      <TR><TD ALIGN="LEFT" BORDER="0">
      <FONT FACE="Roboto"><B>id</B></FONT>
      </TD><TD ALIGN="LEFT">
      <FONT FACE="Roboto"><B>AutoField</B></FONT>
      </TD></TR>
    
    
    
      <TR><TD ALIGN="LEFT" BORDER="0">
      <FONT FACE="Roboto">app_label</FONT>
      </TD><TD ALIGN="LEFT">
      <FONT FACE="Roboto">CharField</FONT>
      </TD></TR>
    
    
    
      <TR><TD ALIGN="LEFT" BORDER="0">
      <FONT FACE="Roboto">model</FONT>
      </TD><TD ALIGN="LEFT">
      <FONT FACE="Roboto">CharField</FONT>
      </TD></TR>
    
    
      </TABLE>
      >]

  }
  subgraph cluster_django_contrib_sessions {
    label=<
          <TABLE BORDER="0" CELLBORDER="0" CELLSPACING="0">
          <TR><TD COLSPAN="2" CELLPADDING="4" ALIGN="CENTER">
          <FONT FACE="Roboto" COLOR="Black" POINT-SIZE="10">
          <B>django.contrib.sessions</B>
          </FONT>
          </TD></TR>
          </TABLE>
          >
    color=olivedrab4
    style="rounded"
  
    django_contrib_sessions_base_session_AbstractBaseSession [label=<
      <TABLE BGCOLOR="white" BORDER="1" CELLBORDER="0" CELLSPACING="0">
      <TR><TD COLSPAN="2" CELLPADDING="5" ALIGN="CENTER" BGCOLOR="#1b563f">
      <FONT FACE="Roboto" COLOR="white" POINT-SIZE="10"><B>
      AbstractBaseSession
      </B></FONT></TD></TR>
    
    
      <TR><TD ALIGN="LEFT" BORDER="0">
      <FONT FACE="Roboto">expire_date</FONT>
      </TD><TD ALIGN="LEFT">
      <FONT FACE="Roboto">DateTimeField</FONT>
      </TD></TR>
    
    
    
      <TR><TD ALIGN="LEFT" BORDER="0">
      <FONT FACE="Roboto">session_data</FONT>
      </TD><TD ALIGN="LEFT">
      <FONT FACE="Roboto">TextField</FONT>
      </TD></TR>
    
    
      </TABLE>
      >]
  
    django_contrib_sessions_models_Session [label=<
      <TABLE BGCOLOR="white" BORDER="1" CELLBORDER="0" CELLSPACING="0">
      <TR><TD COLSPAN="2" CELLPADDING="5" ALIGN="CENTER" BGCOLOR="#1b563f">
      <FONT FACE="Roboto" COLOR="white" POINT-SIZE="10"><B>
      Session<BR/>&lt;<FONT FACE="Roboto"><I>AbstractBaseSession</I></FONT>&gt;
      </B></FONT></TD></TR>
    
    
      <TR><TD ALIGN="LEFT" BORDER="0">
      <FONT FACE="Roboto"><I><B>session_key</B></I></FONT>
      </TD><TD ALIGN="LEFT">
      <FONT FACE="Roboto"><I><B>CharField</B></I></FONT>
      </TD></TR>
    
    
    
      <TR><TD ALIGN="LEFT" BORDER="0">
      <FONT FACE="Roboto"><I>expire_date</I></FONT>
      </TD><TD ALIGN="LEFT">
      <FONT FACE="Roboto"><I>DateTimeField</I></FONT>
      </TD></TR>
    
    
    
      <TR><TD ALIGN="LEFT" BORDER="0">
      <FONT FACE="Roboto"><I>session_data</I></FONT>
      </TD><TD ALIGN="LEFT">
      <FONT FACE="Roboto"><I>TextField</I></FONT>
      </TD></TR>
    
    
      </TABLE>
      >]

  }
  subgraph cluster_users {
    label=<
          <TABLE BORDER="0" CELLBORDER="0" CELLSPACING="0">
          <TR><TD COLSPAN="2" CELLPADDING="4" ALIGN="CENTER">
          <FONT FACE="Roboto" COLOR="Black" POINT-SIZE="10">
          <B>users</B>
          </FONT>
          </TD></TR>
          </TABLE>
          >
    color=olivedrab4
    style="rounded"
  
    django_contrib_auth_models_PermissionsMixin [label=<
      <TABLE BGCOLOR="white" BORDER="1" CELLBORDER="0" CELLSPACING="0">
      <TR><TD COLSPAN="2" CELLPADDING="5" ALIGN="CENTER" BGCOLOR="#1b563f">
      <FONT FACE="Roboto" COLOR="white" POINT-SIZE="10"><B>
      PermissionsMixin
      </B></FONT></TD></TR>
    
    
      <TR><TD ALIGN="LEFT" BORDER="0">
      <FONT FACE="Roboto">is_superuser</FONT>
      </TD><TD ALIGN="LEFT">
      <FONT FACE="Roboto">BooleanField</FONT>
      </TD></TR>
    
    
      </TABLE>
      >]
  
    django_contrib_auth_base_user_AbstractBaseUser [label=<
      <TABLE BGCOLOR="white" BORDER="1" CELLBORDER="0" CELLSPACING="0">
      <TR><TD COLSPAN="2" CELLPADDING="5" ALIGN="CENTER" BGCOLOR="#1b563f">
      <FONT FACE="Roboto" COLOR="white" POINT-SIZE="10"><B>
      AbstractBaseUser
      </B></FONT></TD></TR>
    
    
      <TR><TD ALIGN="LEFT" BORDER="0">
      <FONT COLOR="#7B7B7B" FACE="Roboto">last_login</FONT>
      </TD><TD ALIGN="LEFT">
      <FONT COLOR="#7B7B7B" FACE="Roboto">DateTimeField</FONT>
      </TD></TR>
    
    
    
      <TR><TD ALIGN="LEFT" BORDER="0">
      <FONT FACE="Roboto">password</FONT>
      </TD><TD ALIGN="LEFT">
      <FONT FACE="Roboto">CharField</FONT>
      </TD></TR>
    
    
      </TABLE>
      >]
  
    users_models_User [label=<
      <TABLE BGCOLOR="white" BORDER="1" CELLBORDER="0" CELLSPACING="0">
      <TR><TD COLSPAN="2" CELLPADDING="5" ALIGN="CENTER" BGCOLOR="#1b563f">
      <FONT FACE="Roboto" COLOR="white" POINT-SIZE="10"><B>
      User<BR/>&lt;<FONT FACE="Roboto"><I>AbstractBaseUser,PermissionsMixin</I></FONT>&gt;
      </B></FONT></TD></TR>
    
    
      <TR><TD ALIGN="LEFT" BORDER="0">
      <FONT FACE="Roboto"><B>id</B></FONT>
      </TD><TD ALIGN="LEFT">
      <FONT FACE="Roboto"><B>AutoField</B></FONT>
      </TD></TR>
    
    
    
      <TR><TD ALIGN="LEFT" BORDER="0">
      <FONT COLOR="#7B7B7B" FACE="Roboto"><B>biodata</B></FONT>
      </TD><TD ALIGN="LEFT">
      <FONT COLOR="#7B7B7B" FACE="Roboto"><B>ForeignKey (id)</B></FONT>
      </TD></TR>
    
    
    
      <TR><TD ALIGN="LEFT" BORDER="0">
      <FONT COLOR="#7B7B7B" FACE="Roboto"><B>courier</B></FONT>
      </TD><TD ALIGN="LEFT">
      <FONT COLOR="#7B7B7B" FACE="Roboto"><B>ForeignKey (id)</B></FONT>
      </TD></TR>
    
    
    
      <TR><TD ALIGN="LEFT" BORDER="0">
      <FONT COLOR="#7B7B7B" FACE="Roboto">date_updated</FONT>
      </TD><TD ALIGN="LEFT">
      <FONT COLOR="#7B7B7B" FACE="Roboto">DateTimeField</FONT>
      </TD></TR>
    
    
    
      <TR><TD ALIGN="LEFT" BORDER="0">
      <FONT FACE="Roboto">email</FONT>
      </TD><TD ALIGN="LEFT">
      <FONT FACE="Roboto">CharField</FONT>
      </TD></TR>
    
    
    
      <TR><TD ALIGN="LEFT" BORDER="0">
      <FONT FACE="Roboto">first_name</FONT>
      </TD><TD ALIGN="LEFT">
      <FONT FACE="Roboto">CharField</FONT>
      </TD></TR>
    
    
    
      <TR><TD ALIGN="LEFT" BORDER="0">
      <FONT FACE="Roboto">is_staff</FONT>
      </TD><TD ALIGN="LEFT">
      <FONT FACE="Roboto">BooleanField</FONT>
      </TD></TR>
    
    
    
      <TR><TD ALIGN="LEFT" BORDER="0">
      <FONT FACE="Roboto"><I>is_superuser</I></FONT>
      </TD><TD ALIGN="LEFT">
      <FONT FACE="Roboto"><I>BooleanField</I></FONT>
      </TD></TR>
    
    
    
      <TR><TD ALIGN="LEFT" BORDER="0">
      <FONT COLOR="#7B7B7B" FACE="Roboto"><I>last_login</I></FONT>
      </TD><TD ALIGN="LEFT">
      <FONT COLOR="#7B7B7B" FACE="Roboto"><I>DateTimeField</I></FONT>
      </TD></TR>
    
    
    
      <TR><TD ALIGN="LEFT" BORDER="0">
      <FONT FACE="Roboto">last_name</FONT>
      </TD><TD ALIGN="LEFT">
      <FONT FACE="Roboto">CharField</FONT>
      </TD></TR>
    
    
    
      <TR><TD ALIGN="LEFT" BORDER="0">
      <FONT COLOR="#7B7B7B" FACE="Roboto">middle_name</FONT>
      </TD><TD ALIGN="LEFT">
      <FONT COLOR="#7B7B7B" FACE="Roboto">CharField</FONT>
      </TD></TR>
    
    
    
      <TR><TD ALIGN="LEFT" BORDER="0">
      <FONT FACE="Roboto"><I>password</I></FONT>
      </TD><TD ALIGN="LEFT">
      <FONT FACE="Roboto"><I>CharField</I></FONT>
      </TD></TR>
    
    
    
      <TR><TD ALIGN="LEFT" BORDER="0">
      <FONT FACE="Roboto">phone</FONT>
      </TD><TD ALIGN="LEFT">
      <FONT FACE="Roboto">CharField</FONT>
      </TD></TR>
    
    
    
      <TR><TD ALIGN="LEFT" BORDER="0">
      <FONT COLOR="#7B7B7B" FACE="Roboto">picture</FONT>
      </TD><TD ALIGN="LEFT">
      <FONT COLOR="#7B7B7B" FACE="Roboto">FileField</FONT>
      </TD></TR>
    
    
    
      <TR><TD ALIGN="LEFT" BORDER="0">
      <FONT COLOR="#7B7B7B" FACE="Roboto">role</FONT>
      </TD><TD ALIGN="LEFT">
      <FONT COLOR="#7B7B7B" FACE="Roboto">PositiveSmallIntegerField</FONT>
      </TD></TR>
    
    
      </TABLE>
      >]
  
    users_models_Address [label=<
      <TABLE BGCOLOR="white" BORDER="1" CELLBORDER="0" CELLSPACING="0">
      <TR><TD COLSPAN="2" CELLPADDING="5" ALIGN="CENTER" BGCOLOR="#1b563f">
      <FONT FACE="Roboto" COLOR="white" POINT-SIZE="10"><B>
      Address
      </B></FONT></TD></TR>
    
    
      <TR><TD ALIGN="LEFT" BORDER="0">
      <FONT FACE="Roboto"><B>id</B></FONT>
      </TD><TD ALIGN="LEFT">
      <FONT FACE="Roboto"><B>AutoField</B></FONT>
      </TD></TR>
    
    
    
      <TR><TD ALIGN="LEFT" BORDER="0">
      <FONT FACE="Roboto">address_line1</FONT>
      </TD><TD ALIGN="LEFT">
      <FONT FACE="Roboto">CharField</FONT>
      </TD></TR>
    
    
    
      <TR><TD ALIGN="LEFT" BORDER="0">
      <FONT FACE="Roboto">address_line2</FONT>
      </TD><TD ALIGN="LEFT">
      <FONT FACE="Roboto">CharField</FONT>
      </TD></TR>
    
    
    
      <TR><TD ALIGN="LEFT" BORDER="0">
      <FONT FACE="Roboto">city</FONT>
      </TD><TD ALIGN="LEFT">
      <FONT FACE="Roboto">CharField</FONT>
      </TD></TR>
    
    
    
      <TR><TD ALIGN="LEFT" BORDER="0">
      <FONT FACE="Roboto">country</FONT>
      </TD><TD ALIGN="LEFT">
      <FONT FACE="Roboto">CharField</FONT>
      </TD></TR>
    
    
    
      <TR><TD ALIGN="LEFT" BORDER="0">
      <FONT FACE="Roboto">state</FONT>
      </TD><TD ALIGN="LEFT">
      <FONT FACE="Roboto">CharField</FONT>
      </TD></TR>
    
    
    
      <TR><TD ALIGN="LEFT" BORDER="0">
      <FONT FACE="Roboto">zipcode</FONT>
      </TD><TD ALIGN="LEFT">
      <FONT FACE="Roboto">CharField</FONT>
      </TD></TR>
    
    
      </TABLE>
      >]
  
    users_models_Qualification [label=<
      <TABLE BGCOLOR="white" BORDER="1" CELLBORDER="0" CELLSPACING="0">
      <TR><TD COLSPAN="2" CELLPADDING="5" ALIGN="CENTER" BGCOLOR="#1b563f">
      <FONT FACE="Roboto" COLOR="white" POINT-SIZE="10"><B>
      Qualification
      </B></FONT></TD></TR>
    
    
      <TR><TD ALIGN="LEFT" BORDER="0">
      <FONT FACE="Roboto"><B>id</B></FONT>
      </TD><TD ALIGN="LEFT">
      <FONT FACE="Roboto"><B>AutoField</B></FONT>
      </TD></TR>
    
    
    
      <TR><TD ALIGN="LEFT" BORDER="0">
      <FONT FACE="Roboto">certificate_type</FONT>
      </TD><TD ALIGN="LEFT">
      <FONT FACE="Roboto">CharField</FONT>
      </TD></TR>
    
    
    
      <TR><TD ALIGN="LEFT" BORDER="0">
      <FONT FACE="Roboto">date</FONT>
      </TD><TD ALIGN="LEFT">
      <FONT FACE="Roboto">DateField</FONT>
      </TD></TR>
    
    
    
      <TR><TD ALIGN="LEFT" BORDER="0">
      <FONT COLOR="#7B7B7B" FACE="Roboto">discipline</FONT>
      </TD><TD ALIGN="LEFT">
      <FONT COLOR="#7B7B7B" FACE="Roboto">CharField</FONT>
      </TD></TR>
    
    
    
      <TR><TD ALIGN="LEFT" BORDER="0">
      <FONT FACE="Roboto">institution</FONT>
      </TD><TD ALIGN="LEFT">
      <FONT FACE="Roboto">CharField</FONT>
      </TD></TR>
    
    
      </TABLE>
      >]
  
    users_models_NextOfKin [label=<
      <TABLE BGCOLOR="white" BORDER="1" CELLBORDER="0" CELLSPACING="0">
      <TR><TD COLSPAN="2" CELLPADDING="5" ALIGN="CENTER" BGCOLOR="#1b563f">
      <FONT FACE="Roboto" COLOR="white" POINT-SIZE="10"><B>
      NextOfKin
      </B></FONT></TD></TR>
    
    
      <TR><TD ALIGN="LEFT" BORDER="0">
      <FONT FACE="Roboto"><B>id</B></FONT>
      </TD><TD ALIGN="LEFT">
      <FONT FACE="Roboto"><B>AutoField</B></FONT>
      </TD></TR>
    
    
    
      <TR><TD ALIGN="LEFT" BORDER="0">
      <FONT FACE="Roboto"><B>address</B></FONT>
      </TD><TD ALIGN="LEFT">
      <FONT FACE="Roboto"><B>ForeignKey (id)</B></FONT>
      </TD></TR>
    
    
    
      <TR><TD ALIGN="LEFT" BORDER="0">
      <FONT FACE="Roboto">first_name</FONT>
      </TD><TD ALIGN="LEFT">
      <FONT FACE="Roboto">CharField</FONT>
      </TD></TR>
    
    
    
      <TR><TD ALIGN="LEFT" BORDER="0">
      <FONT FACE="Roboto">last_name</FONT>
      </TD><TD ALIGN="LEFT">
      <FONT FACE="Roboto">CharField</FONT>
      </TD></TR>
    
    
    
      <TR><TD ALIGN="LEFT" BORDER="0">
      <FONT FACE="Roboto">middle_name</FONT>
      </TD><TD ALIGN="LEFT">
      <FONT FACE="Roboto">CharField</FONT>
      </TD></TR>
    
    
    
      <TR><TD ALIGN="LEFT" BORDER="0">
      <FONT FACE="Roboto">phone</FONT>
      </TD><TD ALIGN="LEFT">
      <FONT FACE="Roboto">CharField</FONT>
      </TD></TR>
    
    
    
      <TR><TD ALIGN="LEFT" BORDER="0">
      <FONT FACE="Roboto">relationship</FONT>
      </TD><TD ALIGN="LEFT">
      <FONT FACE="Roboto">CharField</FONT>
      </TD></TR>
    
    
      </TABLE>
      >]
  
    users_models_WorkExperience [label=<
      <TABLE BGCOLOR="white" BORDER="1" CELLBORDER="0" CELLSPACING="0">
      <TR><TD COLSPAN="2" CELLPADDING="5" ALIGN="CENTER" BGCOLOR="#1b563f">
      <FONT FACE="Roboto" COLOR="white" POINT-SIZE="10"><B>
      WorkExperience
      </B></FONT></TD></TR>
    
    
      <TR><TD ALIGN="LEFT" BORDER="0">
      <FONT FACE="Roboto"><B>id</B></FONT>
      </TD><TD ALIGN="LEFT">
      <FONT FACE="Roboto"><B>AutoField</B></FONT>
      </TD></TR>
    
    
    
      <TR><TD ALIGN="LEFT" BORDER="0">
      <FONT FACE="Roboto"><B>address</B></FONT>
      </TD><TD ALIGN="LEFT">
      <FONT FACE="Roboto"><B>ForeignKey (id)</B></FONT>
      </TD></TR>
    
    
    
      <TR><TD ALIGN="LEFT" BORDER="0">
      <FONT COLOR="#7B7B7B" FACE="Roboto">achievements</FONT>
      </TD><TD ALIGN="LEFT">
      <FONT COLOR="#7B7B7B" FACE="Roboto">CharField</FONT>
      </TD></TR>
    
    
    
      <TR><TD ALIGN="LEFT" BORDER="0">
      <FONT FACE="Roboto">company</FONT>
      </TD><TD ALIGN="LEFT">
      <FONT FACE="Roboto">CharField</FONT>
      </TD></TR>
    
    
    
      <TR><TD ALIGN="LEFT" BORDER="0">
      <FONT FACE="Roboto">end_date</FONT>
      </TD><TD ALIGN="LEFT">
      <FONT FACE="Roboto">DateField</FONT>
      </TD></TR>
    
    
    
      <TR><TD ALIGN="LEFT" BORDER="0">
      <FONT FACE="Roboto">job_description</FONT>
      </TD><TD ALIGN="LEFT">
      <FONT FACE="Roboto">CharField</FONT>
      </TD></TR>
    
    
    
      <TR><TD ALIGN="LEFT" BORDER="0">
      <FONT FACE="Roboto">job_function</FONT>
      </TD><TD ALIGN="LEFT">
      <FONT FACE="Roboto">CharField</FONT>
      </TD></TR>
    
    
    
      <TR><TD ALIGN="LEFT" BORDER="0">
      <FONT FACE="Roboto">job_position</FONT>
      </TD><TD ALIGN="LEFT">
      <FONT FACE="Roboto">CharField</FONT>
      </TD></TR>
    
    
    
      <TR><TD ALIGN="LEFT" BORDER="0">
      <FONT FACE="Roboto">reason_for_leaving</FONT>
      </TD><TD ALIGN="LEFT">
      <FONT FACE="Roboto">CharField</FONT>
      </TD></TR>
    
    
    
      <TR><TD ALIGN="LEFT" BORDER="0">
      <FONT FACE="Roboto">start_date</FONT>
      </TD><TD ALIGN="LEFT">
      <FONT FACE="Roboto">DateField</FONT>
      </TD></TR>
    
    
      </TABLE>
      >]
  
    users_models_Biodata [label=<
      <TABLE BGCOLOR="white" BORDER="1" CELLBORDER="0" CELLSPACING="0">
      <TR><TD COLSPAN="2" CELLPADDING="5" ALIGN="CENTER" BGCOLOR="#1b563f">
      <FONT FACE="Roboto" COLOR="white" POINT-SIZE="10"><B>
      Biodata
      </B></FONT></TD></TR>
    
    
      <TR><TD ALIGN="LEFT" BORDER="0">
      <FONT FACE="Roboto"><B>id</B></FONT>
      </TD><TD ALIGN="LEFT">
      <FONT FACE="Roboto"><B>AutoField</B></FONT>
      </TD></TR>
    
    
    
      <TR><TD ALIGN="LEFT" BORDER="0">
      <FONT FACE="Roboto"><B>address</B></FONT>
      </TD><TD ALIGN="LEFT">
      <FONT FACE="Roboto"><B>ForeignKey (id)</B></FONT>
      </TD></TR>
    
    
    
      <TR><TD ALIGN="LEFT" BORDER="0">
      <FONT FACE="Roboto"><B>next_of_kin</B></FONT>
      </TD><TD ALIGN="LEFT">
      <FONT FACE="Roboto"><B>ForeignKey (id)</B></FONT>
      </TD></TR>
    
    
    
      <TR><TD ALIGN="LEFT" BORDER="0">
      <FONT FACE="Roboto"><B>qualification</B></FONT>
      </TD><TD ALIGN="LEFT">
      <FONT FACE="Roboto"><B>ForeignKey (id)</B></FONT>
      </TD></TR>
    
    
    
      <TR><TD ALIGN="LEFT" BORDER="0">
      <FONT FACE="Roboto">country</FONT>
      </TD><TD ALIGN="LEFT">
      <FONT FACE="Roboto">CharField</FONT>
      </TD></TR>
    
    
    
      <TR><TD ALIGN="LEFT" BORDER="0">
      <FONT FACE="Roboto">date_of_birth</FONT>
      </TD><TD ALIGN="LEFT">
      <FONT FACE="Roboto">DateField</FONT>
      </TD></TR>
    
    
    
      <TR><TD ALIGN="LEFT" BORDER="0">
      <FONT FACE="Roboto">lga</FONT>
      </TD><TD ALIGN="LEFT">
      <FONT FACE="Roboto">CharField</FONT>
      </TD></TR>
    
    
    
      <TR><TD ALIGN="LEFT" BORDER="0">
      <FONT FACE="Roboto">religion</FONT>
      </TD><TD ALIGN="LEFT">
      <FONT FACE="Roboto">CharField</FONT>
      </TD></TR>
    
    
    
      <TR><TD ALIGN="LEFT" BORDER="0">
      <FONT FACE="Roboto">state</FONT>
      </TD><TD ALIGN="LEFT">
      <FONT FACE="Roboto">CharField</FONT>
      </TD></TR>
    
    
      </TABLE>
      >]

  }
  subgraph cluster_business {
    label=<
          <TABLE BORDER="0" CELLBORDER="0" CELLSPACING="0">
          <TR><TD COLSPAN="2" CELLPADDING="4" ALIGN="CENTER">
          <FONT FACE="Roboto" COLOR="Black" POINT-SIZE="10">
          <B>business</B>
          </FONT>
          </TD></TR>
          </TABLE>
          >
    color=olivedrab4
    style="rounded"
  
    business_models_Address [label=<
      <TABLE BGCOLOR="white" BORDER="1" CELLBORDER="0" CELLSPACING="0">
      <TR><TD COLSPAN="2" CELLPADDING="5" ALIGN="CENTER" BGCOLOR="#1b563f">
      <FONT FACE="Roboto" COLOR="white" POINT-SIZE="10"><B>
      Address
      </B></FONT></TD></TR>
    
    
      <TR><TD ALIGN="LEFT" BORDER="0">
      <FONT FACE="Roboto"><B>id</B></FONT>
      </TD><TD ALIGN="LEFT">
      <FONT FACE="Roboto"><B>AutoField</B></FONT>
      </TD></TR>
    
    
    
      <TR><TD ALIGN="LEFT" BORDER="0">
      <FONT FACE="Roboto">address_line1</FONT>
      </TD><TD ALIGN="LEFT">
      <FONT FACE="Roboto">CharField</FONT>
      </TD></TR>
    
    
    
      <TR><TD ALIGN="LEFT" BORDER="0">
      <FONT COLOR="#7B7B7B" FACE="Roboto">address_line2</FONT>
      </TD><TD ALIGN="LEFT">
      <FONT COLOR="#7B7B7B" FACE="Roboto">CharField</FONT>
      </TD></TR>
    
    
    
      <TR><TD ALIGN="LEFT" BORDER="0">
      <FONT FACE="Roboto">city</FONT>
      </TD><TD ALIGN="LEFT">
      <FONT FACE="Roboto">CharField</FONT>
      </TD></TR>
    
    
    
      <TR><TD ALIGN="LEFT" BORDER="0">
      <FONT FACE="Roboto">country</FONT>
      </TD><TD ALIGN="LEFT">
      <FONT FACE="Roboto">CharField</FONT>
      </TD></TR>
    
    
    
      <TR><TD ALIGN="LEFT" BORDER="0">
      <FONT FACE="Roboto">state</FONT>
      </TD><TD ALIGN="LEFT">
      <FONT FACE="Roboto">CharField</FONT>
      </TD></TR>
    
    
    
      <TR><TD ALIGN="LEFT" BORDER="0">
      <FONT COLOR="#7B7B7B" FACE="Roboto">zipcode</FONT>
      </TD><TD ALIGN="LEFT">
      <FONT COLOR="#7B7B7B" FACE="Roboto">CharField</FONT>
      </TD></TR>
    
    
      </TABLE>
      >]
  
    business_models_Contact [label=<
      <TABLE BGCOLOR="white" BORDER="1" CELLBORDER="0" CELLSPACING="0">
      <TR><TD COLSPAN="2" CELLPADDING="5" ALIGN="CENTER" BGCOLOR="#1b563f">
      <FONT FACE="Roboto" COLOR="white" POINT-SIZE="10"><B>
      Contact
      </B></FONT></TD></TR>
    
    
      <TR><TD ALIGN="LEFT" BORDER="0">
      <FONT FACE="Roboto"><B>id</B></FONT>
      </TD><TD ALIGN="LEFT">
      <FONT FACE="Roboto"><B>AutoField</B></FONT>
      </TD></TR>
    
    
    
      <TR><TD ALIGN="LEFT" BORDER="0">
      <FONT COLOR="#7B7B7B" FACE="Roboto"><B>address</B></FONT>
      </TD><TD ALIGN="LEFT">
      <FONT COLOR="#7B7B7B" FACE="Roboto"><B>ForeignKey (id)</B></FONT>
      </TD></TR>
    
    
    
      <TR><TD ALIGN="LEFT" BORDER="0">
      <FONT COLOR="#7B7B7B" FACE="Roboto">email</FONT>
      </TD><TD ALIGN="LEFT">
      <FONT COLOR="#7B7B7B" FACE="Roboto">TextField</FONT>
      </TD></TR>
    
    
    
      <TR><TD ALIGN="LEFT" BORDER="0">
      <FONT FACE="Roboto">name</FONT>
      </TD><TD ALIGN="LEFT">
      <FONT FACE="Roboto">TextField</FONT>
      </TD></TR>
    
    
    
      <TR><TD ALIGN="LEFT" BORDER="0">
      <FONT FACE="Roboto">phone</FONT>
      </TD><TD ALIGN="LEFT">
      <FONT FACE="Roboto">TextField</FONT>
      </TD></TR>
    
    
      </TABLE>
      >]
  
    business_models_Business [label=<
      <TABLE BGCOLOR="white" BORDER="1" CELLBORDER="0" CELLSPACING="0">
      <TR><TD COLSPAN="2" CELLPADDING="5" ALIGN="CENTER" BGCOLOR="#1b563f">
      <FONT FACE="Roboto" COLOR="white" POINT-SIZE="10"><B>
      Business
      </B></FONT></TD></TR>
    
    
      <TR><TD ALIGN="LEFT" BORDER="0">
      <FONT FACE="Roboto"><B>id</B></FONT>
      </TD><TD ALIGN="LEFT">
      <FONT FACE="Roboto"><B>AutoField</B></FONT>
      </TD></TR>
    
    
    
      <TR><TD ALIGN="LEFT" BORDER="0">
      <FONT FACE="Roboto"><B>address</B></FONT>
      </TD><TD ALIGN="LEFT">
      <FONT FACE="Roboto"><B>ForeignKey (id)</B></FONT>
      </TD></TR>
    
    
    
      <TR><TD ALIGN="LEFT" BORDER="0">
      <FONT COLOR="#7B7B7B" FACE="Roboto"><B>contact</B></FONT>
      </TD><TD ALIGN="LEFT">
      <FONT COLOR="#7B7B7B" FACE="Roboto"><B>ForeignKey (id)</B></FONT>
      </TD></TR>
    
    
    
      <TR><TD ALIGN="LEFT" BORDER="0">
      <FONT COLOR="#7B7B7B" FACE="Roboto">email</FONT>
      </TD><TD ALIGN="LEFT">
      <FONT COLOR="#7B7B7B" FACE="Roboto">TextField</FONT>
      </TD></TR>
    
    
    
      <TR><TD ALIGN="LEFT" BORDER="0">
      <FONT FACE="Roboto">name</FONT>
      </TD><TD ALIGN="LEFT">
      <FONT FACE="Roboto">CharField</FONT>
      </TD></TR>
    
    
    
      <TR><TD ALIGN="LEFT" BORDER="0">
      <FONT COLOR="#7B7B7B" FACE="Roboto">phone</FONT>
      </TD><TD ALIGN="LEFT">
      <FONT COLOR="#7B7B7B" FACE="Roboto">TextField</FONT>
      </TD></TR>
    
    
      </TABLE>
      >]

  }
  subgraph cluster_couriers {
    label=<
          <TABLE BORDER="0" CELLBORDER="0" CELLSPACING="0">
          <TR><TD COLSPAN="2" CELLPADDING="4" ALIGN="CENTER">
          <FONT FACE="Roboto" COLOR="Black" POINT-SIZE="10">
          <B>couriers</B>
          </FONT>
          </TD></TR>
          </TABLE>
          >
    color=olivedrab4
    style="rounded"
  
    couriers_models_Address [label=<
      <TABLE BGCOLOR="white" BORDER="1" CELLBORDER="0" CELLSPACING="0">
      <TR><TD COLSPAN="2" CELLPADDING="5" ALIGN="CENTER" BGCOLOR="#1b563f">
      <FONT FACE="Roboto" COLOR="white" POINT-SIZE="10"><B>
      Address
      </B></FONT></TD></TR>
    
    
      <TR><TD ALIGN="LEFT" BORDER="0">
      <FONT FACE="Roboto"><B>id</B></FONT>
      </TD><TD ALIGN="LEFT">
      <FONT FACE="Roboto"><B>AutoField</B></FONT>
      </TD></TR>
    
    
    
      <TR><TD ALIGN="LEFT" BORDER="0">
      <FONT FACE="Roboto">address_line1</FONT>
      </TD><TD ALIGN="LEFT">
      <FONT FACE="Roboto">CharField</FONT>
      </TD></TR>
    
    
    
      <TR><TD ALIGN="LEFT" BORDER="0">
      <FONT FACE="Roboto">address_line2</FONT>
      </TD><TD ALIGN="LEFT">
      <FONT FACE="Roboto">CharField</FONT>
      </TD></TR>
    
    
    
      <TR><TD ALIGN="LEFT" BORDER="0">
      <FONT FACE="Roboto">city</FONT>
      </TD><TD ALIGN="LEFT">
      <FONT FACE="Roboto">CharField</FONT>
      </TD></TR>
    
    
    
      <TR><TD ALIGN="LEFT" BORDER="0">
      <FONT FACE="Roboto">country</FONT>
      </TD><TD ALIGN="LEFT">
      <FONT FACE="Roboto">CharField</FONT>
      </TD></TR>
    
    
    
      <TR><TD ALIGN="LEFT" BORDER="0">
      <FONT FACE="Roboto">state</FONT>
      </TD><TD ALIGN="LEFT">
      <FONT FACE="Roboto">CharField</FONT>
      </TD></TR>
    
    
    
      <TR><TD ALIGN="LEFT" BORDER="0">
      <FONT FACE="Roboto">zipcode</FONT>
      </TD><TD ALIGN="LEFT">
      <FONT FACE="Roboto">CharField</FONT>
      </TD></TR>
    
    
      </TABLE>
      >]
  
    couriers_models_Contact [label=<
      <TABLE BGCOLOR="white" BORDER="1" CELLBORDER="0" CELLSPACING="0">
      <TR><TD COLSPAN="2" CELLPADDING="5" ALIGN="CENTER" BGCOLOR="#1b563f">
      <FONT FACE="Roboto" COLOR="white" POINT-SIZE="10"><B>
      Contact
      </B></FONT></TD></TR>
    
    
      <TR><TD ALIGN="LEFT" BORDER="0">
      <FONT FACE="Roboto"><B>id</B></FONT>
      </TD><TD ALIGN="LEFT">
      <FONT FACE="Roboto"><B>AutoField</B></FONT>
      </TD></TR>
    
    
    
      <TR><TD ALIGN="LEFT" BORDER="0">
      <FONT COLOR="#7B7B7B" FACE="Roboto"><B>address</B></FONT>
      </TD><TD ALIGN="LEFT">
      <FONT COLOR="#7B7B7B" FACE="Roboto"><B>ForeignKey (id)</B></FONT>
      </TD></TR>
    
    
    
      <TR><TD ALIGN="LEFT" BORDER="0">
      <FONT COLOR="#7B7B7B" FACE="Roboto">email</FONT>
      </TD><TD ALIGN="LEFT">
      <FONT COLOR="#7B7B7B" FACE="Roboto">CharField</FONT>
      </TD></TR>
    
    
    
      <TR><TD ALIGN="LEFT" BORDER="0">
      <FONT FACE="Roboto">name</FONT>
      </TD><TD ALIGN="LEFT">
      <FONT FACE="Roboto">CharField</FONT>
      </TD></TR>
    
    
    
      <TR><TD ALIGN="LEFT" BORDER="0">
      <FONT FACE="Roboto">phone</FONT>
      </TD><TD ALIGN="LEFT">
      <FONT FACE="Roboto">CharField</FONT>
      </TD></TR>
    
    
      </TABLE>
      >]
  
    couriers_models_Courier [label=<
      <TABLE BGCOLOR="white" BORDER="1" CELLBORDER="0" CELLSPACING="0">
      <TR><TD COLSPAN="2" CELLPADDING="5" ALIGN="CENTER" BGCOLOR="#1b563f">
      <FONT FACE="Roboto" COLOR="white" POINT-SIZE="10"><B>
      Courier
      </B></FONT></TD></TR>
    
    
      <TR><TD ALIGN="LEFT" BORDER="0">
      <FONT FACE="Roboto"><B>id</B></FONT>
      </TD><TD ALIGN="LEFT">
      <FONT FACE="Roboto"><B>AutoField</B></FONT>
      </TD></TR>
    
    
    
      <TR><TD ALIGN="LEFT" BORDER="0">
      <FONT FACE="Roboto"><B>contact</B></FONT>
      </TD><TD ALIGN="LEFT">
      <FONT FACE="Roboto"><B>ForeignKey (id)</B></FONT>
      </TD></TR>
    
    
    
      <TR><TD ALIGN="LEFT" BORDER="0">
      <FONT FACE="Roboto">name</FONT>
      </TD><TD ALIGN="LEFT">
      <FONT FACE="Roboto">CharField</FONT>
      </TD></TR>
    
    
      </TABLE>
      >]

  }
  subgraph cluster_orders {
    label=<
          <TABLE BORDER="0" CELLBORDER="0" CELLSPACING="0">
          <TR><TD COLSPAN="2" CELLPADDING="4" ALIGN="CENTER">
          <FONT FACE="Roboto" COLOR="Black" POINT-SIZE="10">
          <B>orders</B>
          </FONT>
          </TD></TR>
          </TABLE>
          >
    color=olivedrab4
    style="rounded"
  
    orders_models_Media [label=<
      <TABLE BGCOLOR="white" BORDER="1" CELLBORDER="0" CELLSPACING="0">
      <TR><TD COLSPAN="2" CELLPADDING="5" ALIGN="CENTER" BGCOLOR="#1b563f">
      <FONT FACE="Roboto" COLOR="white" POINT-SIZE="10"><B>
      Media
      </B></FONT></TD></TR>
    
    
      <TR><TD ALIGN="LEFT" BORDER="0">
      <FONT FACE="Roboto"><B>id</B></FONT>
      </TD><TD ALIGN="LEFT">
      <FONT FACE="Roboto"><B>AutoField</B></FONT>
      </TD></TR>
    
    
    
      <TR><TD ALIGN="LEFT" BORDER="0">
      <FONT COLOR="#7B7B7B" FACE="Roboto">description</FONT>
      </TD><TD ALIGN="LEFT">
      <FONT COLOR="#7B7B7B" FACE="Roboto">CharField</FONT>
      </TD></TR>
    
    
    
      <TR><TD ALIGN="LEFT" BORDER="0">
      <FONT FACE="Roboto">document</FONT>
      </TD><TD ALIGN="LEFT">
      <FONT FACE="Roboto">FileField</FONT>
      </TD></TR>
    
    
    
      <TR><TD ALIGN="LEFT" BORDER="0">
      <FONT COLOR="#7B7B7B" FACE="Roboto">uploaded_at</FONT>
      </TD><TD ALIGN="LEFT">
      <FONT COLOR="#7B7B7B" FACE="Roboto">DateTimeField</FONT>
      </TD></TR>
    
    
      </TABLE>
      >]
  
    orders_models_Address [label=<
      <TABLE BGCOLOR="white" BORDER="1" CELLBORDER="0" CELLSPACING="0">
      <TR><TD COLSPAN="2" CELLPADDING="5" ALIGN="CENTER" BGCOLOR="#1b563f">
      <FONT FACE="Roboto" COLOR="white" POINT-SIZE="10"><B>
      Address
      </B></FONT></TD></TR>
    
    
      <TR><TD ALIGN="LEFT" BORDER="0">
      <FONT FACE="Roboto"><B>id</B></FONT>
      </TD><TD ALIGN="LEFT">
      <FONT FACE="Roboto"><B>AutoField</B></FONT>
      </TD></TR>
    
    
    
      <TR><TD ALIGN="LEFT" BORDER="0">
      <FONT FACE="Roboto">address_line1</FONT>
      </TD><TD ALIGN="LEFT">
      <FONT FACE="Roboto">CharField</FONT>
      </TD></TR>
    
    
    
      <TR><TD ALIGN="LEFT" BORDER="0">
      <FONT COLOR="#7B7B7B" FACE="Roboto">address_line2</FONT>
      </TD><TD ALIGN="LEFT">
      <FONT COLOR="#7B7B7B" FACE="Roboto">CharField</FONT>
      </TD></TR>
    
    
    
      <TR><TD ALIGN="LEFT" BORDER="0">
      <FONT FACE="Roboto">city</FONT>
      </TD><TD ALIGN="LEFT">
      <FONT FACE="Roboto">CharField</FONT>
      </TD></TR>
    
    
    
      <TR><TD ALIGN="LEFT" BORDER="0">
      <FONT COLOR="#7B7B7B" FACE="Roboto">country</FONT>
      </TD><TD ALIGN="LEFT">
      <FONT COLOR="#7B7B7B" FACE="Roboto">CharField</FONT>
      </TD></TR>
    
    
    
      <TR><TD ALIGN="LEFT" BORDER="0">
      <FONT FACE="Roboto">state</FONT>
      </TD><TD ALIGN="LEFT">
      <FONT FACE="Roboto">CharField</FONT>
      </TD></TR>
    
    
    
      <TR><TD ALIGN="LEFT" BORDER="0">
      <FONT COLOR="#7B7B7B" FACE="Roboto">zipcode</FONT>
      </TD><TD ALIGN="LEFT">
      <FONT COLOR="#7B7B7B" FACE="Roboto">CharField</FONT>
      </TD></TR>
    
    
      </TABLE>
      >]
  
    orders_models_Customer [label=<
      <TABLE BGCOLOR="white" BORDER="1" CELLBORDER="0" CELLSPACING="0">
      <TR><TD COLSPAN="2" CELLPADDING="5" ALIGN="CENTER" BGCOLOR="#1b563f">
      <FONT FACE="Roboto" COLOR="white" POINT-SIZE="10"><B>
      Customer
      </B></FONT></TD></TR>
    
    
      <TR><TD ALIGN="LEFT" BORDER="0">
      <FONT FACE="Roboto"><B>id</B></FONT>
      </TD><TD ALIGN="LEFT">
      <FONT FACE="Roboto"><B>AutoField</B></FONT>
      </TD></TR>
    
    
    
      <TR><TD ALIGN="LEFT" BORDER="0">
      <FONT COLOR="#7B7B7B" FACE="Roboto"><B>address</B></FONT>
      </TD><TD ALIGN="LEFT">
      <FONT COLOR="#7B7B7B" FACE="Roboto"><B>ForeignKey (id)</B></FONT>
      </TD></TR>
    
    
    
      <TR><TD ALIGN="LEFT" BORDER="0">
      <FONT COLOR="#7B7B7B" FACE="Roboto">email</FONT>
      </TD><TD ALIGN="LEFT">
      <FONT COLOR="#7B7B7B" FACE="Roboto">CharField</FONT>
      </TD></TR>
    
    
    
      <TR><TD ALIGN="LEFT" BORDER="0">
      <FONT FACE="Roboto">name</FONT>
      </TD><TD ALIGN="LEFT">
      <FONT FACE="Roboto">CharField</FONT>
      </TD></TR>
    
    
    
      <TR><TD ALIGN="LEFT" BORDER="0">
      <FONT FACE="Roboto">phone</FONT>
      </TD><TD ALIGN="LEFT">
      <FONT FACE="Roboto">CharField</FONT>
      </TD></TR>
    
    
      </TABLE>
      >]
  
    orders_models_Event [label=<
      <TABLE BGCOLOR="white" BORDER="1" CELLBORDER="0" CELLSPACING="0">
      <TR><TD COLSPAN="2" CELLPADDING="5" ALIGN="CENTER" BGCOLOR="#1b563f">
      <FONT FACE="Roboto" COLOR="white" POINT-SIZE="10"><B>
      Event
      </B></FONT></TD></TR>
    
    
      <TR><TD ALIGN="LEFT" BORDER="0">
      <FONT FACE="Roboto"><B>id</B></FONT>
      </TD><TD ALIGN="LEFT">
      <FONT FACE="Roboto"><B>AutoField</B></FONT>
      </TD></TR>
    
    
    
      <TR><TD ALIGN="LEFT" BORDER="0">
      <FONT FACE="Roboto">description</FONT>
      </TD><TD ALIGN="LEFT">
      <FONT FACE="Roboto">CharField</FONT>
      </TD></TR>
    
    
    
      <TR><TD ALIGN="LEFT" BORDER="0">
      <FONT COLOR="#7B7B7B" FACE="Roboto">timestamp</FONT>
      </TD><TD ALIGN="LEFT">
      <FONT COLOR="#7B7B7B" FACE="Roboto">DateTimeField</FONT>
      </TD></TR>
    
    
      </TABLE>
      >]
  
    orders_models_Order [label=<
      <TABLE BGCOLOR="white" BORDER="1" CELLBORDER="0" CELLSPACING="0">
      <TR><TD COLSPAN="2" CELLPADDING="5" ALIGN="CENTER" BGCOLOR="#1b563f">
      <FONT FACE="Roboto" COLOR="white" POINT-SIZE="10"><B>
      Order
      </B></FONT></TD></TR>
    
    
      <TR><TD ALIGN="LEFT" BORDER="0">
      <FONT FACE="Roboto"><B>id</B></FONT>
      </TD><TD ALIGN="LEFT">
      <FONT FACE="Roboto"><B>AutoField</B></FONT>
      </TD></TR>
    
    
    
      <TR><TD ALIGN="LEFT" BORDER="0">
      <FONT COLOR="#7B7B7B" FACE="Roboto"><B>assigned_to</B></FONT>
      </TD><TD ALIGN="LEFT">
      <FONT COLOR="#7B7B7B" FACE="Roboto"><B>ForeignKey (id)</B></FONT>
      </TD></TR>
    
    
    
      <TR><TD ALIGN="LEFT" BORDER="0">
      <FONT FACE="Roboto"><B>business</B></FONT>
      </TD><TD ALIGN="LEFT">
      <FONT FACE="Roboto"><B>ForeignKey (id)</B></FONT>
      </TD></TR>
    
    
    
      <TR><TD ALIGN="LEFT" BORDER="0">
      <FONT FACE="Roboto"><B>customer</B></FONT>
      </TD><TD ALIGN="LEFT">
      <FONT FACE="Roboto"><B>ForeignKey (id)</B></FONT>
      </TD></TR>
    
    
    
      <TR><TD ALIGN="LEFT" BORDER="0">
      <FONT COLOR="#7B7B7B" FACE="Roboto">charges</FONT>
      </TD><TD ALIGN="LEFT">
      <FONT COLOR="#7B7B7B" FACE="Roboto">DecimalField</FONT>
      </TD></TR>
    
    
    
      <TR><TD ALIGN="LEFT" BORDER="0">
      <FONT COLOR="#7B7B7B" FACE="Roboto">created_at</FONT>
      </TD><TD ALIGN="LEFT">
      <FONT COLOR="#7B7B7B" FACE="Roboto">DateTimeField</FONT>
      </TD></TR>
    
    
    
      <TR><TD ALIGN="LEFT" BORDER="0">
      <FONT COLOR="#7B7B7B" FACE="Roboto">description</FONT>
      </TD><TD ALIGN="LEFT">
      <FONT COLOR="#7B7B7B" FACE="Roboto">CharField</FONT>
      </TD></TR>
    
    
    
      <TR><TD ALIGN="LEFT" BORDER="0">
      <FONT COLOR="#7B7B7B" FACE="Roboto">dimension</FONT>
      </TD><TD ALIGN="LEFT">
      <FONT COLOR="#7B7B7B" FACE="Roboto">CharField</FONT>
      </TD></TR>
    
    
    
      <TR><TD ALIGN="LEFT" BORDER="0">
      <FONT COLOR="#7B7B7B" FACE="Roboto">note</FONT>
      </TD><TD ALIGN="LEFT">
      <FONT COLOR="#7B7B7B" FACE="Roboto">TextField</FONT>
      </TD></TR>
    
    
    
      <TR><TD ALIGN="LEFT" BORDER="0">
      <FONT COLOR="#7B7B7B" FACE="Roboto">quantity</FONT>
      </TD><TD ALIGN="LEFT">
      <FONT COLOR="#7B7B7B" FACE="Roboto">IntegerField</FONT>
      </TD></TR>
    
    
    
      <TR><TD ALIGN="LEFT" BORDER="0">
      <FONT FACE="Roboto">status</FONT>
      </TD><TD ALIGN="LEFT">
      <FONT FACE="Roboto">CharField</FONT>
      </TD></TR>
    
    
    
      <TR><TD ALIGN="LEFT" BORDER="0">
      <FONT FACE="Roboto">tracking_id</FONT>
      </TD><TD ALIGN="LEFT">
      <FONT FACE="Roboto">SlugField</FONT>
      </TD></TR>
    
    
    
      <TR><TD ALIGN="LEFT" BORDER="0">
      <FONT COLOR="#7B7B7B" FACE="Roboto">updated_at</FONT>
      </TD><TD ALIGN="LEFT">
      <FONT COLOR="#7B7B7B" FACE="Roboto">DateTimeField</FONT>
      </TD></TR>
    
    
    
      <TR><TD ALIGN="LEFT" BORDER="0">
      <FONT COLOR="#7B7B7B" FACE="Roboto">weight</FONT>
      </TD><TD ALIGN="LEFT">
      <FONT COLOR="#7B7B7B" FACE="Roboto">DecimalField</FONT>
      </TD></TR>
    
    
      </TABLE>
      >]

  }


  // Relations

  django_contrib_admin_models_LogEntry -> users_models_User
  [label=" user (logentry)"] [arrowhead=none, arrowtail=dot, dir=both];

  django_contrib_admin_models_LogEntry -> django_contrib_contenttypes_models_ContentType
  [label=" content_type (logentry)"] [arrowhead=none, arrowtail=dot, dir=both];


  django_contrib_auth_models_Permission -> django_contrib_contenttypes_models_ContentType
  [label=" content_type (permission)"] [arrowhead=none, arrowtail=dot, dir=both];

  django_contrib_auth_models_Group -> django_contrib_auth_models_Permission
  [label=" permissions (group)"] [arrowhead=dot arrowtail=dot, dir=both];



  django_contrib_sessions_models_Session -> django_contrib_sessions_base_session_AbstractBaseSession
  [label=" abstract\ninheritance"] [arrowhead=empty, arrowtail=none, dir=both];


  users_models_User -> users_models_Biodata
  [label=" biodata (user)"] [arrowhead=none, arrowtail=dot, dir=both];

  users_models_User -> couriers_models_Courier
  [label=" courier (user)"] [arrowhead=none, arrowtail=dot, dir=both];

  users_models_User -> django_contrib_auth_models_Group
  [label=" groups (user)"] [arrowhead=dot arrowtail=dot, dir=both];

  users_models_User -> django_contrib_auth_models_Permission
  [label=" user_permissions (user)"] [arrowhead=dot arrowtail=dot, dir=both];

  users_models_User -> django_contrib_auth_base_user_AbstractBaseUser
  [label=" abstract\ninheritance"] [arrowhead=empty, arrowtail=none, dir=both];

  users_models_User -> django_contrib_auth_models_PermissionsMixin
  [label=" abstract\ninheritance"] [arrowhead=empty, arrowtail=none, dir=both];

  users_models_NextOfKin -> users_models_Address
  [label=" address (nextofkin)"] [arrowhead=none, arrowtail=dot, dir=both];

  users_models_WorkExperience -> users_models_Address
  [label=" address (workexperience)"] [arrowhead=none, arrowtail=dot, dir=both];

  users_models_Biodata -> users_models_Qualification
  [label=" qualification (biodata)"] [arrowhead=none, arrowtail=dot, dir=both];

  users_models_Biodata -> users_models_Address
  [label=" address (biodata)"] [arrowhead=none, arrowtail=dot, dir=both];

  users_models_Biodata -> users_models_NextOfKin
  [label=" next_of_kin (biodata)"] [arrowhead=none, arrowtail=dot, dir=both];

  users_models_Biodata -> users_models_WorkExperience
  [label=" work_experience (biodata)"] [arrowhead=dot arrowtail=dot, dir=both];


  business_models_Contact -> business_models_Address
  [label=" address (contact)"] [arrowhead=none, arrowtail=dot, dir=both];

  business_models_Business -> business_models_Contact
  [label=" contact (business)"] [arrowhead=none, arrowtail=dot, dir=both];

  business_models_Business -> business_models_Address
  [label=" address (business)"] [arrowhead=none, arrowtail=dot, dir=both];


  couriers_models_Contact -> couriers_models_Address
  [label=" address (contact)"] [arrowhead=none, arrowtail=dot, dir=both];

  couriers_models_Courier -> couriers_models_Contact
  [label=" contact (courier)"] [arrowhead=none, arrowtail=dot, dir=both];


  orders_models_Customer -> orders_models_Address
  [label=" address (customer)"] [arrowhead=none, arrowtail=dot, dir=both];

  orders_models_Order -> business_models_Business
  [label=" business (order)"] [arrowhead=none, arrowtail=dot, dir=both];

  orders_models_Order -> orders_models_Customer
  [label=" customer (order)"] [arrowhead=none, arrowtail=dot, dir=both];

  orders_models_Order -> couriers_models_Courier
  [label=" assigned_to (order)"] [arrowhead=none, arrowtail=dot, dir=both];

  orders_models_Order -> orders_models_Media
  [label=" media (order)"] [arrowhead=dot arrowtail=dot, dir=both];

  orders_models_Order -> orders_models_Event
  [label=" event (order)"] [arrowhead=dot arrowtail=dot, dir=both];


}
